module gitlab.com/gumeniukcom/fcha

go 1.17

require (
	github.com/mailru/easyjson v0.7.7
	github.com/stretchr/testify v1.7.1
)

require (
	github.com/davecgh/go-spew v1.1.0 // indirect
	github.com/josharian/intern v1.0.0 // indirect
	github.com/pmezard/go-difflib v1.0.0 // indirect
	gopkg.in/yaml.v3 v3.0.0-20200313102051-9f266ea9e77c // indirect
)
